Engine/Binaries/Win64/UE4Game.exe	2019-08-29T18:12:18.390Z
Engine/Extras/Redist/en-us/UE4PrereqSetup_x64.exe	2019-05-01T08:24:04.870Z
Engine/Binaries/ThirdParty/Oculus/OVRPlugin/OVRPlugin/Win64/OVRPlugin.dll	2019-08-29T18:10:46.248Z
Engine/Binaries/ThirdParty/DbgHelp/dbghelp.dll	2019-08-29T18:10:22.219Z
Engine/Binaries/ThirdParty/libsndfile/Win64/libsndfile-1.dll	2019-08-29T18:10:23.294Z
Engine/Binaries/ThirdParty/NVIDIA/NVaftermath/Win64/GFSDK_Aftermath_Lib.x64.dll	2019-08-29T18:10:45.861Z
Engine/Binaries/ThirdParty/Windows/DirectX/x64/WinPixEventRuntime.dll	2019-08-29T18:11:33.348Z
Engine/Binaries/ThirdParty/PhysX3/Win64/VS2015/PxFoundationPROFILE_x64.dll	2019-08-29T18:10:57.611Z
Engine/Binaries/ThirdParty/PhysX3/Win64/VS2015/PxPvdSDKPROFILE_x64.dll	2019-08-29T18:10:57.680Z
Engine/Binaries/ThirdParty/PhysX3/Win64/VS2015/PhysX3PROFILE_x64.dll	2019-08-29T18:10:57.279Z
Engine/Binaries/ThirdParty/PhysX3/Win64/VS2015/PhysX3CookingPROFILE_x64.dll	2019-08-29T18:10:57.121Z
Engine/Binaries/ThirdParty/PhysX3/Win64/VS2015/PhysX3CommonPROFILE_x64.dll	2019-08-29T18:10:56.636Z
Engine/Binaries/ThirdParty/PhysX3/Win64/VS2015/APEX_ClothingPROFILE_x64.dll	2019-08-29T18:10:53.767Z
Engine/Binaries/ThirdParty/PhysX3/Win64/VS2015/APEX_LegacyPROFILE_x64.dll	2019-08-29T18:10:54.662Z
Engine/Binaries/ThirdParty/PhysX3/Win64/VS2015/ApexFrameworkPROFILE_x64.dll	2019-08-29T18:10:55.495Z
Engine/Binaries/ThirdParty/PhysX3/Win64/VS2015/NvClothPROFILE_x64.dll	2019-08-29T18:10:55.684Z
Engine/Binaries/ThirdParty/OpenVR/OpenVRv1_0_16/Win64/openvr_api.dll	2019-08-29T18:10:46.686Z
Engine/Binaries/ThirdParty/Ogg/Win64/VS2015/libogg_64.dll	2019-08-29T18:10:46.377Z
Engine/Binaries/ThirdParty/Vorbis/Win64/VS2015/libvorbis_64.dll	2019-08-29T18:11:32.847Z
Engine/Binaries/ThirdParty/Vorbis/Win64/VS2015/libvorbisfile_64.dll	2019-08-29T18:11:32.863Z
MyProject2.exe	2019-11-10T10:26:08.226Z
